Implementing More and Better Use of ICES Survey data • obus
…
CA
5964714
35

Number of records and variables

The above fast approach is achieved by importing from parquet files that are hosted on a conventional https-server. At this stage it is unclear how much simultaneous traffic it can handle. The way things have been setup so far is just a proof of concept. By the same nature, do not expect that the datasets accessed are the latest mirror of the data residing in ICES Datras Database.

Those familiar with DATRAS data will notice when viewing the data that the variable names are based on the new lingo. If your downstream code-flow depends on the old lingo one can easily revert back via:

hl |> dr_translate(from = "new", to = "old")
#> # A tibble: 14,397,334 × 30
#>    RecordType `-`    Quarter Country Ship  Gear  SweepLngt GearEx DoorType StNo 
#>    <chr>      <chr>    <int> <chr>   <chr> <chr>     <int> <chr>  <chr>    <chr>
#>  1 HL         NS-IB…       1 NL      64WB  DHT          45 <NA>   <NA>     1    
#>  2 HL         NS-IB…       1 NL      64WB  DHT          45 <NA>   <NA>     2    
#>  3 HL         NS-IB…       1 NL      64WB  DHT          45 <NA>   <NA>     2    
#>  4 HL         NS-IB…       1 NL      64WB  DHT          45 <NA>   <NA>     2    
#>  5 HL         NS-IB…       1 NL      64WB  DHT          45 <NA>   <NA>     2    
#>  6 HL         NS-IB…       1 NL      64WB  DHT          45 <NA>   <NA>     2    
#>  7 HL         NS-IB…       1 NL      64WB  DHT          45 <NA>   <NA>     2    
#>  8 HL         NS-IB…       1 NL      64WB  DHT          45 <NA>   <NA>     2    
#>  9 HL         NS-IB…       1 NL      64WB  DHT          45 <NA>   <NA>     2    
#> 10 HL         NS-IB…       1 NL      64WB  DHT          45 <NA>   <NA>     2    
#> # ℹ 14,397,324 more rows
#> # ℹ 20 more variables: HaulNo <int>, SpecCodeType <chr>, SpecCode <chr>,
#> #   SpecVal <chr>, Sex <chr>, TotalNo <dbl>, CatIdentifier <int>, NoMeas <int>,
#> #   SubFactor <dbl>, SubWgt <int>, CatCatchWgt <int>, LngtCode <chr>,
#> #   LngtClass <int>, CANoAtLngt <dbl>, DevStage <chr>, LenMeasType <chr>,
#> #   DateofCalculation <int>, Valid_Aphia <int>, Year <dbl>, .id <chr>
…
