…
| type |     rows | cols |
|:-----|---------:|-----:|
| HH   |   150261 |   70 |
| HL   | 14397334 |   30 |
| CA   |  5964714 |   35 |

Number of records and variables

All tables use standard column names and correct variable types. If your
downstream code depends on the old DATRAS column names, revert with:

``` r

hl |> dr_translate(from = "new", to = "old")
#> # A tibble: 14,397,334 × 30
#>    RecordType `-`    Quarter Country Ship  Gear  SweepLngt GearEx DoorType StNo 
#>    <chr>      <chr>    <int> <chr>   <chr> <chr>     <int> <chr>  <chr>    <chr>
#>  1 HL         NS-IB…       1 NL      64WB  DHT          45 <NA>   <NA>     1    
#>  2 HL         NS-IB…       1 NL      64WB  DHT          45 <NA>   <NA>     2    
#>  3 HL         NS-IB…       1 NL      64WB  DHT          45 <NA>   <NA>     2    
#>  4 HL         NS-IB…       1 NL      64WB  DHT          45 <NA>   <NA>     2    
#>  5 HL         NS-IB…       1 NL      64WB  DHT          45 <NA>   <NA>     2    
#>  6 HL         NS-IB…       1 NL      64WB  DHT          45 <NA>   <NA>     2    
#>  7 HL         NS-IB…       1 NL      64WB  DHT          45 <NA>   <NA>     2    
#>  8 HL         NS-IB…       1 NL      64WB  DHT          45 <NA>   <NA>     2    
#>  9 HL         NS-IB…       1 NL      64WB  DHT          45 <NA>   <NA>     2    
#> 10 HL         NS-IB…       1 NL      64WB  DHT          45 <NA>   <NA>     2    
#> # ℹ 14,397,324 more rows
#> # ℹ 20 more variables: HaulNo <int>, SpecCodeType <chr>, SpecCode <chr>,
#> #   SpecVal <chr>, Sex <chr>, TotalNo <dbl>, CatIdentifier <int>, NoMeas <int>,
#> #   SubFactor <dbl>, SubWgt <int>, CatCatchWgt <int>, LngtCode <chr>,
#> #   LngtClass <int>, CANoAtLngt <dbl>, DevStage <chr>, LenMeasType <chr>,
#> #   DateofCalculation <int>, Valid_Aphia <int>, Year <dbl>, .id <chr>
```
…
