…
Those familiar with DATRAS data will notice when viewing the data that
the variable names are based on the new lingo. If your downstream
code-flow depends on the old lingo one can easily revert back via:

``` r
hl |> dr_translate(from = "new", to = "old")
#> # A tibble: 14,397,344 × 30
#>    RecordType Survey Quarter Country Ship  Gear  SweepLngt GearEx DoorType StNo 
#>    <chr>      <chr>    <int> <chr>   <chr> <chr>     <int> <chr>  <chr>    <chr>
#>  1 HL         NS-IB…       1 NL      64WB  DHT          45 <NA>   <NA>     1    
#>  2 HL         NS-IB…       1 NL      64WB  DHT          45 <NA>   <NA>     1    
#>  3 HL         NS-IB…       1 NL      64WB  DHT          45 <NA>   <NA>     1    
#>  4 HL         NS-IB…       1 NL      64WB  DHT          45 <NA>   <NA>     1    
#>  5 HL         NS-IB…       1 NL      64WB  DHT          45 <NA>   <NA>     1    
#>  6 HL         NS-IB…       1 NL      64WB  DHT          45 <NA>   <NA>     1    
#>  7 HL         NS-IB…       1 NL      64WB  DHT          45 <NA>   <NA>     1    
#>  8 HL         NS-IB…       1 NL      64WB  DHT          45 <NA>   <NA>     1    
#>  9 HL         NS-IB…       1 NL      64WB  DHT          45 <NA>   <NA>     1    
#> 10 HL         NS-IB…       1 NL      64WB  DHT          45 <NA>   <NA>     1    
#> # ℹ 14,397,334 more rows
#> # ℹ 20 more variables: HaulNo <int>, SpecCodeType <chr>, SpecCode <chr>,
#> #   SpecVal <chr>, Sex <chr>, TotalNo <dbl>, CatIdentifier <int>, NoMeas <int>,
#> #   SubFactor <dbl>, SubWgt <int>, CatCatchWgt <int>, LngtCode <chr>,
#> #   LngtClass <int>, CANoAtLngt <dbl>, DevStage <chr>, LenMeasType <chr>,
#> #   DateofCalculation <int>, Valid_Aphia <int>, Year <dbl>, .id <chr>
```
…
